\relax 
\catcode `"\active 
\AC@reset@newl@bel
\select@language{spanish}
\@writefile{toc}{\select@language{spanish}}
\@writefile{lof}{\select@language{spanish}}
\@writefile{lot}{\select@language{spanish}}
\@input{abreviaturas.aux}
\@writefile{toc}{\contentsline {chapter}{\numberline {1}Introducción}{2}}
\@writefile{lof}{\addvspace {10\p@ }}
\@writefile{lot}{\addvspace {10\p@ }}
\newlabel{chap:introduccion}{{1}{2}}
\@writefile{toc}{\contentsline {section}{\numberline {1.1}Motivación y Contexto}{3}}
\@writefile{toc}{\contentsline {section}{\numberline {1.2}Planteamiento del Problema}{4}}
\@writefile{toc}{\contentsline {section}{\numberline {1.3}Objetivos}{4}}
\@writefile{toc}{\contentsline {subsection}{\numberline {1.3.1}Objetivos Específicos}{4}}
\@writefile{toc}{\contentsline {section}{\numberline {1.4}Organización de la tesis}{4}}
\@writefile{toc}{\contentsline {chapter}{\numberline {2}Marco Teórico}{6}}
\@writefile{lof}{\addvspace {10\p@ }}
\@writefile{lot}{\addvspace {10\p@ }}
\newlabel{chap:estado_arte}{{2}{6}}
\@writefile{toc}{\contentsline {section}{\numberline {2.1}Sustracción de Fondo}{6}}
\@writefile{toc}{\contentsline {section}{\numberline {2.2}Operaciones Morfológicas}{6}}
\@writefile{toc}{\contentsline {subsection}{\numberline {2.2.1}Dilatación Binaria}{7}}
\@writefile{toc}{\contentsline {subsubsection}{Propiedades}{7}}
\@writefile{toc}{\contentsline {subsection}{\numberline {2.2.2}Erosión Binaria}{8}}
\@writefile{toc}{\contentsline {subsubsection}{Propiedades}{8}}
\@writefile{toc}{\contentsline {subsection}{\numberline {2.2.3}Apertura}{8}}
\@writefile{toc}{\contentsline {subsubsection}{Teorema de Caracterización}{9}}
\@writefile{toc}{\contentsline {subsection}{\numberline {2.2.4}Clausura}{9}}
\@writefile{toc}{\contentsline {subsubsection}{Propiedades}{9}}
\@writefile{toc}{\contentsline {section}{\numberline {2.3}Shape Context}{9}}
\@writefile{toc}{\contentsline {subsection}{\numberline {2.3.1}Características}{10}}
\@writefile{toc}{\contentsline {subsection}{\numberline {2.3.2}Algoritmo Húngaro}{10}}
\@writefile{toc}{\contentsline {subsection}{\numberline {2.3.3}Segmentación de Imágenes (Cuerpo))}{11}}
\@writefile{toc}{\contentsline {section}{\numberline {2.4}Autómata Celular}{11}}
\@writefile{toc}{\contentsline {subsubsection}{Elementos}{12}}
\@writefile{toc}{\contentsline {subsection}{\numberline {2.4.1}GrowCut}{12}}
\@writefile{toc}{\contentsline {section}{\numberline {2.5}\textit  {Convolutional Neural Networks (CNNs / ConvNets)}}{13}}
\@writefile{toc}{\contentsline {subsubsection}{Descripción de la Arquitectura}{13}}
\@writefile{toc}{\contentsline {subsubsection}{Capas}{13}}
\citation{growcut}
\@writefile{toc}{\contentsline {subsection}{\numberline {2.5.1}\textit  {TensorFlow}}{14}}
\@writefile{toc}{\contentsline {subsection}{\numberline {2.5.2}\textit  {Red convolucional VGGNet}}{14}}
\@writefile{toc}{\contentsline {section}{\numberline {2.6}Estado del Arte}{14}}
\@writefile{toc}{\contentsline {subsection}{\numberline {2.6.1}Sustracción de \textit  {Background} - Detección de \textit  {ForeGround}}{14}}
\citation{backmodelling}
\citation{backparametric}
\citation{multilayer}
\citation{yolo}
\citation{mog2}
\citation{bodysegmentation}
\citation{siluetas}
\citation{deep-seg}
\citation{graph-cut}
\@writefile{toc}{\contentsline {subsection}{\numberline {2.6.2}Detección y Segmentación de la Silueta}{17}}
\citation{joint-seg}
\citation{mog2}
\citation{growcut}
\citation{bodysegmentation}
\citation{rgb-modeling}
\citation{rapid-detection}
\@writefile{toc}{\contentsline {subsection}{\numberline {2.6.3}Reconocimiento de Características Específicas}{19}}
\citation{deep-fashion}
\citation{style-finder}
\@writefile{toc}{\contentsline {chapter}{\numberline {3}Propuesta}{21}}
\@writefile{lof}{\addvspace {10\p@ }}
\@writefile{lot}{\addvspace {10\p@ }}
\newlabel{chap:propuesta}{{3}{21}}
\@writefile{lof}{\contentsline {figure}{\numberline {3.2}{\ignorespaces Resultado de \textit  {YOLO}}}{21}}
\newlabel{yolo-result}{{3.2}{21}}
\@writefile{lof}{\contentsline {figure}{\numberline {3.1}{\ignorespaces Diagrama de Flujo de la propuesta}}{22}}
\newlabel{flowdiagram}{{3.1}{22}}
\@writefile{lof}{\contentsline {figure}{\numberline {3.3}{\ignorespaces Imagen objetivo luego de la sustracción del \textit  {background}}}{23}}
\newlabel{background}{{3.3}{23}}
\@writefile{lof}{\contentsline {figure}{\numberline {3.4}{\ignorespaces Clausura, Apertura, Erosión y Salida de \textit  {Shape Context} dentro del cuerpo de la persona}}{23}}
\newlabel{semillas_dentro}{{3.4}{23}}
\@writefile{lof}{\contentsline {figure}{\numberline {3.5}{\ignorespaces Segmentación del \textit  {GrowCut}}}{24}}
\newlabel{growcut_salida}{{3.5}{24}}
\@writefile{toc}{\contentsline {section}{\numberline {3.1}Optimización de \textit  {GrowCut}}{25}}
\newlabel{ecuacion_moda}{{3.1}{25}}
\@writefile{lot}{\contentsline {table}{\numberline {3.1}{\ignorespaces Reglas de moda creadas para polos}}{26}}
\newlabel{moda-valores-polos}{{3.1}{26}}
\@writefile{lot}{\contentsline {table}{\numberline {3.2}{\ignorespaces Reglas de moda creadas para camisas}}{26}}
\newlabel{moda-valores-camisas}{{3.2}{26}}
\@writefile{toc}{\contentsline {chapter}{\numberline {4}Pruebas y Resultados}{27}}
\@writefile{lof}{\addvspace {10\p@ }}
\@writefile{lot}{\addvspace {10\p@ }}
\newlabel{chap:pruebas}{{4}{27}}
\@writefile{toc}{\contentsline {section}{\numberline {4.1}Conjunto de Datos}{27}}
\@writefile{toc}{\contentsline {subsection}{\numberline {4.1.1}Datos Enfocados en YOLO}{27}}
\@writefile{toc}{\contentsline {subsection}{\numberline {4.1.2}Datos Enfocados en \textit  {Shape Context}}{28}}
\@writefile{toc}{\contentsline {subsection}{\numberline {4.1.3}Datos Enfocados en \textit  {CNN VGGNet}}{28}}
\@writefile{toc}{\contentsline {subsection}{\numberline {4.1.4}Datos Enfocados en el Proceso Completo}{28}}
\@writefile{toc}{\contentsline {section}{\numberline {4.2}Diseño del Experimento}{29}}
\@writefile{toc}{\contentsline {subsection}{\numberline {4.2.1}Participantes}{29}}
\@writefile{toc}{\contentsline {subsection}{\numberline {4.2.2}Diseño de la Propuesta}{29}}
\@writefile{lot}{\contentsline {table}{\numberline {4.1}{\ignorespaces Tabla comparativa sobre la cantidad de muestras de la silueta}}{30}}
\newlabel{tabla-result-shape-context}{{4.1}{30}}
\@writefile{lof}{\contentsline {figure}{\numberline {4.1}{\ignorespaces Resultado del \textit  {GrowCut}}}{30}}
\newlabel{final-completo}{{4.1}{30}}
\@writefile{toc}{\contentsline {section}{\numberline {4.3}Evaluación del Programa Completo}{31}}
\@writefile{lof}{\contentsline {figure}{\numberline {4.2}{\ignorespaces Foto de la persona donde existio discrepancia entre los participantes y el programa}}{32}}
\newlabel{figura-personas}{{4.2}{32}}
\@writefile{lot}{\contentsline {table}{\numberline {4.2}{\ignorespaces Tabla comparativa entre los participantes y \textit  {DressIt}}}{33}}
\newlabel{tabla-final}{{4.2}{33}}
\@writefile{lof}{\contentsline {figure}{\numberline {4.3}{\ignorespaces Evaluación de Videos por participante y programa}}{34}}
\newlabel{graph-final}{{4.3}{34}}
\@writefile{toc}{\contentsline {chapter}{\numberline {5}Conclusiones y Trabajos Futuros}{35}}
\@writefile{lof}{\addvspace {10\p@ }}
\@writefile{lot}{\addvspace {10\p@ }}
\newlabel{chap:conclusiones}{{5}{35}}
\@writefile{toc}{\contentsline {section}{\numberline {5.1}Trabajos Futuros}{36}}
\@writefile{lof}{\contentsline {figure}{\numberline {5.1}{\ignorespaces Frame del Video 1}}{37}}
\newlabel{video-result-1}{{5.1}{37}}
\@writefile{lof}{\contentsline {figure}{\numberline {5.2}{\ignorespaces Frame del Video 2}}{37}}
\newlabel{video-result-2}{{5.2}{37}}
\@writefile{lof}{\contentsline {figure}{\numberline {5.3}{\ignorespaces Frame del Video 3}}{38}}
\newlabel{video-result-3}{{5.3}{38}}
\@writefile{lof}{\contentsline {figure}{\numberline {5.4}{\ignorespaces Frame del Video 4}}{38}}
\newlabel{video-result-4}{{5.4}{38}}
\bibstyle{plain}
\citation{*}
\bibdata{Bibliog}
\@writefile{lof}{\contentsline {figure}{\numberline {5.5}{\ignorespaces Frame del Video 5}}{39}}
\newlabel{video-result-5}{{5.5}{39}}
\bibcite{mcg}{1}
\bibcite{backvideo}{2}
\bibcite{cpmc}{3}
\bibcite{deep-seg}{4}
\bibcite{Goodfellow-et-al-2016}{5}
\bibcite{recovering-seg}{6}
\bibcite{siluetas}{7}
\bibcite{multilayer}{8}
\bibcite{fully}{9}
\bibcite{yolo}{10}
\bibcite{bodysegmentation}{11}
\bibcite{part-segmentation}{12}
\bibcite{mog2}{13}
\bibcite{icarbook}{14}
\bibcite{rcnn}{15}
\bibcite{shape}{16}
\bibcite{backmodelling}{17}
\bibcite{graph-cut}{18}
\bibcite{backparametric}{19}
\bibcite{reco-seg}{20}
\bibcite{growcut}{21}
\bibcite{rapid-detection}{22}
\bibcite{rgb-modeling}{23}
\bibcite{obj-seg}{24}
\bibcite{joint-seg}{25}
\bibcite{style-finder}{26}
\bibcite{deep-fashion}{27}
\@writefile{toc}{\contentsline {chapter}{Bibliografía}{41}}
