\relax 
\catcode `"\active 
\AC@reset@newl@bel
\select@language{spanish}
\@writefile{toc}{\select@language{spanish}}
\@writefile{lof}{\select@language{spanish}}
\@writefile{lot}{\select@language{spanish}}
\@input{abreviaturas.aux}
\@writefile{toc}{\contentsline {chapter}{\numberline {1}Introducción}{2}}
\@writefile{lof}{\addvspace {10\p@ }}
\@writefile{lot}{\addvspace {10\p@ }}
\newlabel{chap:introduccion}{{1}{2}}
\@writefile{toc}{\contentsline {section}{\numberline {1.1}Motivación y Contexto}{3}}
\@writefile{toc}{\contentsline {section}{\numberline {1.2}Planteamiento del Problema}{3}}
\@writefile{toc}{\contentsline {section}{\numberline {1.3}Objetivos}{4}}
\@writefile{toc}{\contentsline {subsection}{\numberline {1.3.1}Objetivos Específicos}{4}}
\@writefile{toc}{\contentsline {section}{\numberline {1.4}Organización de la tesis}{4}}
\@writefile{toc}{\contentsline {section}{\numberline {1.5}Cronograma}{4}}
\@writefile{lot}{\contentsline {table}{\numberline {1.1}{\ignorespaces Cronograma de Tesis}}{5}}
\newlabel{Cronograma}{{1.1}{5}}
\citation{growcut}
\citation{backmodelling}
\citation{backparametric}
\citation{multilayer}
\@writefile{toc}{\contentsline {chapter}{\numberline {2}Estado del Arte}{6}}
\@writefile{lof}{\addvspace {10\p@ }}
\@writefile{lot}{\addvspace {10\p@ }}
\newlabel{chap:estado_arte}{{2}{6}}
\@writefile{toc}{\contentsline {subsection}{\numberline {2.0.1}Sustracción de Background - Detección de ForeGround}{6}}
\citation{yolo}
\citation{bodysegmentation}
\citation{siluetas}
\citation{growcut}
\citation{bodysegmentation}
\@writefile{toc}{\contentsline {subsection}{\numberline {2.0.2}Detección y Segmentación de la Silueta}{8}}
\@writefile{lof}{\contentsline {figure}{\numberline {2.1}{\ignorespaces Proceso del análisis del retrato}}{9}}
\newlabel{workflow}{{2.1}{9}}
\@writefile{toc}{\contentsline {chapter}{\numberline {3}Propuesta}{10}}
\@writefile{lof}{\addvspace {10\p@ }}
\@writefile{lot}{\addvspace {10\p@ }}
\newlabel{chap:propuesta}{{3}{10}}
\@writefile{lof}{\contentsline {figure}{\numberline {3.1}{\ignorespaces Imagen objetivo luego de la sustracción del \textit  {background}}}{10}}
\newlabel{background}{{3.1}{10}}
\@writefile{lof}{\contentsline {figure}{\numberline {3.2}{\ignorespaces Apertura del objeto luego de sustraer el \textit  {background}}}{11}}
\newlabel{opening}{{3.2}{11}}
\@writefile{lof}{\contentsline {figure}{\numberline {3.3}{\ignorespaces Clausura del objeto luego de sustraer el \textit  {background}}}{11}}
\newlabel{closing}{{3.3}{11}}
\@writefile{lof}{\contentsline {figure}{\numberline {3.4}{\ignorespaces Semillas segun conjunto en la Imagen}}{12}}
\newlabel{semillas-context}{{3.4}{12}}
\@writefile{toc}{\contentsline {section}{\numberline {3.1}Sustracción de Fondo}{12}}
\@writefile{toc}{\contentsline {section}{\numberline {3.2}Operaciones Morfológicas}{12}}
\@writefile{toc}{\contentsline {subsection}{\numberline {3.2.1}Dilatación Binaria}{13}}
\@writefile{toc}{\contentsline {subsubsection}{Propiedades}{13}}
\@writefile{toc}{\contentsline {subsection}{\numberline {3.2.2}Erosión Binaria}{14}}
\@writefile{toc}{\contentsline {subsubsection}{Propiedades}{14}}
\@writefile{toc}{\contentsline {subsection}{\numberline {3.2.3}Apertura}{14}}
\@writefile{toc}{\contentsline {subsubsection}{Teorema de Caracterización}{15}}
\@writefile{toc}{\contentsline {subsection}{\numberline {3.2.4}Clausura}{15}}
\@writefile{toc}{\contentsline {subsubsection}{Propiedades}{15}}
\@writefile{toc}{\contentsline {section}{\numberline {3.3}Shape Context}{15}}
\@writefile{toc}{\contentsline {subsection}{\numberline {3.3.1}Características}{16}}
\@writefile{toc}{\contentsline {subsection}{\numberline {3.3.2}Algoritmo húngaro}{16}}
\@writefile{toc}{\contentsline {subsection}{\numberline {3.3.3}Segmentación de Imágenes (Cuerpo))}{17}}
\@writefile{toc}{\contentsline {subsection}{\numberline {3.3.4}Automata Celular}{17}}
\@writefile{toc}{\contentsline {subsubsection}{Elementos}{18}}
\@writefile{toc}{\contentsline {subsection}{\numberline {3.3.5}GrowCut}{18}}
\@writefile{toc}{\contentsline {chapter}{\numberline {4}Pruebas y Resultados}{20}}
\@writefile{lof}{\addvspace {10\p@ }}
\@writefile{lot}{\addvspace {10\p@ }}
\@writefile{lof}{\contentsline {figure}{\numberline {4.1}{\ignorespaces Resultado del pipeline}}{20}}
\newlabel{final-completo}{{4.1}{20}}
\@writefile{lot}{\contentsline {table}{\numberline {4.1}{\ignorespaces Tabla comparativa sobre el procesamiento del retrato}}{21}}
\newlabel{table-results}{{4.1}{21}}
\@writefile{toc}{\contentsline {chapter}{\numberline {5}Conclusiones y Trabajos Futuros}{22}}
\@writefile{lof}{\addvspace {10\p@ }}
\@writefile{lot}{\addvspace {10\p@ }}
\newlabel{chap:conclusiones}{{5}{22}}
\@writefile{toc}{\contentsline {section}{\numberline {5.1}Trabajos Futuros}{22}}
\bibstyle{plain}
\bibdata{Bibliog}
\bibcite{siluetas}{1}
\bibcite{multilayer}{2}
\bibcite{yolo}{3}
\bibcite{bodysegmentation}{4}
\bibcite{backmodelling}{5}
\bibcite{backparametric}{6}
\bibcite{growcut}{7}
\@writefile{toc}{\contentsline {chapter}{Bibliografía}{24}}
