This is BibTeX, Version 0.99d (TeX Live 2015/Debian)
Capacity: max_strings=35307, hash_size=35307, hash_prime=30011
The top-level auxiliary file: Tesis.aux
A level-1 auxiliary file: abreviaturas.aux
The style file: plain.bst
Database file #1: Bibliog.bib
Too many commas in name 1 of "Vishesh Goel, Sahil Singhal, Tarun Jain, Silica Kole" for entry rgb-modeling
while executing---line 1049 of file plain.bst
Too many commas in name 1 of "Wei Di, Catherine Wah, Anurag Bhardwaj, Robinson Piramuthu and Neel undaresan" for entry style-finder
while executing---line 1049 of file plain.bst
Too many commas in name 1 of "Ziwui Liu, Ping Luo, Shi Qiu, Xiaogang Wang and Xiaoou Tang" for entry deep-fashion
while executing---line 1049 of file plain.bst
Too many commas in name 1 of "Vishesh Goel, Sahil Singhal, Tarun Jain, Silica Kole" for entry rgb-modeling
while executing---line 1090 of file plain.bst
Too many commas in name 1 of "Wei Di, Catherine Wah, Anurag Bhardwaj, Robinson Piramuthu and Neel undaresan" for entry style-finder
while executing---line 1090 of file plain.bst
Too many commas in name 1 of "Ziwui Liu, Ping Luo, Shi Qiu, Xiaogang Wang and Xiaoou Tang" for entry deep-fashion
while executing---line 1090 of file plain.bst
Warning--empty journal in deep-fashion
You've used 27 entries,
            2118 wiz_defined-function locations,
            625 strings with 8298 characters,
and the built_in function-call counts, 6488 in all, are:
= -- 604
> -- 337
< -- 0
+ -- 137
- -- 108
* -- 332
:= -- 1223
add.period$ -- 82
call.type$ -- 27
change.case$ -- 131
chr.to.int$ -- 0
cite$ -- 28
duplicate$ -- 278
empty$ -- 480
format.name$ -- 108
if$ -- 1290
int.to.chr$ -- 0
int.to.str$ -- 27
missing$ -- 31
newline$ -- 139
num.names$ -- 54
pop$ -- 152
preamble$ -- 1
purify$ -- 108
quote$ -- 0
skip$ -- 191
stack$ -- 0
substring$ -- 137
swap$ -- 26
text.length$ -- 0
text.prefix$ -- 0
top$ -- 0
type$ -- 100
warning$ -- 1
while$ -- 54
width$ -- 29
write$ -- 273
(There were 6 error messages)
